\begin{tikzpicture}
	\begin{pgfonlayer}{nodelayer}
		\node [style=none] (0) at (0, 0) {};
		\node [style=none] (1) at (0, 9.25) {};
		\node [style=none] (2) at (11, 0) {};
		\node [style=none] (11) at (-0.25, -0.25) {0};
		\node [style=none] (22) at (-0.75, 9.25) {$P$};
		\node [style=none] (23) at (11, -0.5) {$V$};
		\node [style=none] (24) at (1, 9.25) {};
		\node [style=none] (25) at (1, 0) {};
		\node [style=none] (26) at (1.5, 9.25) {};
		\node [style=none] (27) at (3.25, 7) {};
		\node [style=none] (28) at (6, 6.75) {};
		\node [style=none] (29) at (7.75, 5.25) {};
		\node [style=none] (30) at (10, 2) {};
		\node [style=none] (31) at (4.25, 6.75) {};
		\node [style=none] (32) at (7.25, 0.25) {};
		\node [style=none] (33) at (1.75, 6.25) {I};
		\node [style=none] (34) at (7, 8.75) {IV};
		\node [style=none] (35) at (4, 3.25) {III};
		\node [style=none] (36) at (7.25, 4.5) {II};
	\end{pgfonlayer}
	\begin{pgfonlayer}{edgelayer}
		\draw [style=arrowZ] (0.center) to (1.center);
		\draw [style=arrowZ] (0.center) to (2.center);
		\draw [style=dash-edgeZ] (25.center) to (24.center);
		\draw [bend right, looseness=0.75] (26.center) to (27.center);
		\draw [in=150, out=-15, looseness=1.25] (27.center) to (28.center);
		\draw [in=135, out=-45] (28.center) to (29.center);
		\draw [bend left=15, looseness=0.25] (29.center) to (30.center);
		\draw [style=dash-edgeZ, in=-165, out=60] (25.center) to (31.center);
		\draw [style=dash-edgeZ, in=120, out=-15] (31.center) to (32.center);
	\end{pgfonlayer}
\end{tikzpicture}
